#   _     _  _     _  __ ____  _  __ _
#  / \   / \/ \ /\/ |/ //  _ \/ |/ // \ /\
#  | |   | || | |||   / | / \||   / | | ||
#  | |_/\| || \_/||   \ | |-|||   \ | \_/|
#  \____/\_/\____/\_|\_\\_/ \|\_|\_\\____/
#

#:: Spring Boot :: v2.3.0
#:: Edit by Andre Chou 2020.05.01
